{
  "info": {
    "bpm": 250,
    "msPerBeat": 240,
    "songLength": 20181
  },
  "settings": {
    "durationFalloff": 30,
    "pitchFalloff": 30,
    "velocityFalloff": 30
  },
  "colours": [
    [
      204,
      198,
      27
    ],
    [
      1,
      98,
      214
    ],
    [
      38,
      86,
      88
    ],
    [
      143,
      44,
      142
    ],
    [
      202,
      152,
      38
    ]
  ],
  "effects": {}
}