0.0 0.569
0.027 0.526
0.053 0.483
0.08 0.44
0.106 0.397
0.133 0.354
0.159 0.311
0.167 0.269
0.175 0.227
0.184 0.184
0.192 0.142
0.2 0.1
0.208 0.058
0.256 0.129
0.304 0.2
0.352 0.272
0.4 0.343
0.448 0.415
0.496 0.486
0.434 0.406
0.372 0.327
0.31 0.247
0.248 0.167
0.186 0.088
0.124 0.008
0.122 0.045
0.12 0.082
0.119 0.12
0.117 0.157
0.115 0.194
0.114 0.231
0.129 0.258
0.145 0.284
0.161 0.311
0.177 0.337
0.193 0.364
0.208 0.39
0.202 0.341
0.196 0.291
0.19 0.241
0.184 0.192
0.178 0.142
0.172 0.092
0.202 0.122
0.231 0.152
0.261 0.183
0.29 0.213
0.319 0.243
0.349 0.273
0.339 0.285
0.329 0.298
0.318 0.31
0.308 0.322
0.298 0.334
0.288 0.346
0.319 0.371
0.349 0.397
0.38 0.422
0.411 0.447
0.442 0.473
0.472 0.498
0.42 0.445
0.367 0.391
0.314 0.338
0.262 0.285
0.209 0.232
0.157 0.179
0.232 0.212
0.308 0.245
0.384 0.278
0.459 0.311
0.535 0.344
0.611 0.377
0.564 0.334
0.517 0.292
0.47 0.249
0.424 0.206
0.377 0.163
0.33 0.12
0.298 0.133
0.267 0.146
0.235 0.159
0.203 0.172
0.172 0.185
0.14 0.198
0.19 0.267
0.24 0.336
0.29 0.405
0.34 0.475
0.39 0.544
0.44 0.613
0.399 0.542
0.357 0.471
0.316 0.4
0.274 0.329
0.233 0.258
0.191 0.187
0.237 0.224
0.283 0.261
0.329 0.298
0.375 0.335
0.421 0.372
0.466 0.409
0.452 0.403
0.438 0.398
0.424 0.393
0.409 0.388
0.395 0.383
0.381 0.378
0.365 0.377
0.349 0.376
0.333 0.374
0.317 0.373
0.301 0.372
0.285 0.37
0.27 0.356
0.255 0.341
0.239 0.327
0.224 0.312
0.209 0.297
0.194 0.283
0.232 0.284
0.269 0.285
0.307 0.287
0.344 0.288
0.382 0.289
0.419 0.291
0.422 0.318
0.425 0.345
0.428 0.373
0.431 0.4
0.433 0.427
0.436 0.454
0.397 0.4
0.358 0.346
0.319 0.292
0.28 0.238
0.241 0.184
0.202 0.13
0.287 0.235
0.372 0.34
0.456 0.444
0.541 0.549
0.626 0.654
0.711 0.759
0.625 0.658
0.539 0.558
0.453 0.458
0.367 0.357
0.282 0.257
0.196 0.157
0.24 0.196
0.285 0.236
0.329 0.275
0.373 0.314
0.418 0.354
0.462 0.393
0.423 0.37
0.383 0.346
0.344 0.323
0.304 0.299
0.265 0.276
0.226 0.252
0.239 0.263
0.253 0.275
0.267 0.286
0.28 0.297
0.294 0.308
0.308 0.32
0.295 0.315
0.282 0.31
0.269 0.304
0.256 0.299
0.244 0.294
0.231 0.289
0.246 0.302
0.26 0.314
0.275 0.327
0.29 0.34
0.305 0.352
0.32 0.365
0.368 0.4
0.415 0.435
0.463 0.47
0.511 0.505
0.559 0.54
0.607 0.575
0.547 0.503
0.487 0.43
0.427 0.357
0.367 0.284
0.307 0.212
0.247 0.139
0.306 0.241
0.364 0.344
0.423 0.446
0.481 0.549
0.54 0.651
0.598 0.754
0.535 0.697
0.472 0.64
0.408 0.584
0.345 0.527
0.282 0.47
0.219 0.414
0.225 0.355
0.232 0.295
0.239 0.236
0.246 0.177
0.253 0.118
0.26 0.058
0.256 0.089
0.252 0.119
0.248 0.149
0.244 0.179
0.239 0.21
0.235 0.24
0.248 0.25
0.261 0.26
0.274 0.27
0.287 0.281
0.3 0.291
0.313 0.301
0.327 0.337
0.342 0.374
0.356 0.41
0.371 0.446
0.386 0.483
0.4 0.519
0.36 0.467
0.32 0.414
0.28 0.361
0.24 0.309
0.2 0.256
0.16 0.203
0.251 0.284
0.343 0.365
0.434 0.445
0.526 0.526
0.617 0.606
0.709 0.687
0.653 0.592
0.597 0.497
0.541 0.401
0.485 0.306
0.429 0.211
0.373 0.116
0.345 0.136
0.318 0.156
0.291 0.176
0.263 0.196
0.236 0.216
0.208 0.236
0.239 0.292
0.27 0.347
0.301 0.403
0.332 0.459
0.363 0.515
0.394 0.571
0.359 0.497
0.323 0.422
0.288 0.348
0.252 0.274
0.217 0.2
0.182 0.126
0.219 0.171
0.257 0.217
0.294 0.262
0.331 0.307
0.369 0.352
0.406 0.397
0.42 0.4
0.434 0.403
0.448 0.406
0.461 0.409
0.475 0.411
0.489 0.414
0.484 0.431
0.48 0.448
0.475 0.465
0.47 0.482
0.465 0.499
0.46 0.516
0.415 0.465
0.369 0.415
0.324 0.364
0.278 0.314
0.233 0.263
0.187 0.213
0.216 0.223
0.246 0.234
0.275 0.244
0.305 0.254
0.334 0.265
0.363 0.275
0.375 0.288
0.386 0.301
0.398 0.314
0.41 0.327
0.421 0.34
0.433 0.353
0.398 0.327
0.363 0.301
0.329 0.275
0.294 0.249
0.259 0.223
0.224 0.197
0.289 0.285
0.354 0.372
0.418 0.46
0.483 0.548
0.547 0.636
0.612 0.724
0.542 0.625
0.473 0.526
0.403 0.428
0.333 0.329
0.264 0.23
0.194 0.131
0.251 0.196
0.307 0.261
0.364 0.326
0.421 0.391
0.478 0.456
0.535 0.521
0.485 0.469
0.435 0.417
0.386 0.365
0.336 0.314
0.286 0.262
0.236 0.21
0.244 0.229
0.251 0.248
0.259 0.267
0.266 0.286
0.274 0.305
0.281 0.324
0.278 0.318
0.275 0.312
0.272 0.305
0.269 0.299
0.266 0.293
0.263 0.287
0.277 0.289
0.292 0.292
0.306 0.295
0.32 0.298
0.334 0.301
0.348 0.303
0.393 0.359
0.439 0.414
0.484 0.469
0.529 0.525
0.574 0.58
0.619 0.635
0.584 0.604
0.55 0.573
0.515 0.542
0.481 0.511
0.446 0.48
0.412 0.449
0.369 0.401
0.326 0.353
0.282 0.305
0.239 0.258
0.196 0.21
0.153 0.162
0.232 0.21
0.311 0.259
0.391 0.307
0.47 0.356
0.549 0.404
0.628 0.452
0.579 0.397
0.53 0.341
0.481 0.285
0.432 0.229
0.382 0.173
0.333 0.118
0.322 0.142
0.31 0.167
0.298 0.191
0.287 0.216
0.275 0.241
0.263 0.265
0.255 0.285
0.246 0.306
0.238 0.326
0.229 0.346
0.221 0.366
0.212 0.386
0.232 0.364
0.253 0.342
0.273 0.32
0.293 0.298
0.313 0.276
0.333 0.254
0.34 0.293
0.347 0.332
0.354 0.371
0.361 0.41
0.369 0.448
0.376 0.487
0.337 0.44
0.299 0.393
0.26 0.346
0.221 0.299
0.183 0.252
0.144 0.205
0.233 0.267
0.322 0.328
0.411 0.39
0.5 0.451
0.589 0.513
0.678 0.574
0.621 0.499
0.564 0.424
0.508 0.348
0.451 0.273
0.394 0.198
0.338 0.122
0.328 0.148
0.318 0.173
0.308 0.198
0.298 0.224
0.288 0.249
0.278 0.274
0.292 0.267
0.307 0.259
0.322 0.251
0.336 0.243
0.351 0.236
0.366 0.228
0.396 0.284
0.427 0.341
0.457 0.397
0.488 0.454
0.519 0.511
0.549 0.567
0.505 0.496
0.46 0.425
0.415 0.354
0.371 0.283
0.326 0.212
0.281 0.141
0.395 0.191
0.51 0.241
0.624 0.291
0.738 0.341
0.852 0.391
0.967 0.441
0.932 0.379
0.898 0.317
0.864 0.255
0.83 0.194
0.796 0.132
0.762 0.07
0.687 0.105
0.611 0.141
0.536 0.177
0.461 0.213
0.385 0.249
0.31 0.285
0.323 0.292
0.337 0.3
0.35 0.307
0.363 0.314
0.376 0.322
0.39 0.329
0.348 0.309
0.306 0.29
0.264 0.27
0.222 0.25
0.18 0.23
0.138 0.211
0.276 0.281
0.415 0.351
0.553 0.421
0.691 0.491
0.83 0.561
0.968 0.631
0.887 0.55
0.806 0.468
0.725 0.387
0.645 0.306
0.564 0.225
0.483 0.143
0.478 0.196
0.473 0.248
0.468 0.301
0.463 0.353
0.459 0.406
0.454 0.458
0.416 0.413
0.378 0.367
0.341 0.322
0.303 0.277
0.265 0.231
0.228 0.186
0.24 0.194
0.252 0.202
0.264 0.21
0.277 0.218
0.289 0.226
0.301 0.234
0.397 0.222
0.492 0.211
0.587 0.2
0.682 0.189
0.778 0.178
0.873 0.166
0.791 0.18
0.709 0.193
0.627 0.207
0.545 0.22
0.463 0.234
0.381 0.247
0.398 0.304
0.416 0.361
0.434 0.417
0.451 0.474
0.469 0.531
0.487 0.588
0.447 0.509
0.407 0.431
0.368 0.353
0.328 0.275
0.288 0.197
0.249 0.118
0.366 0.21
0.483 0.301
0.6 0.393
0.717 0.484
0.834 0.575
0.951 0.667
0.91 0.568
0.869 0.469
0.828 0.369
0.787 0.27
0.746 0.171
0.705 0.072
0.613 0.065
0.52 0.058
0.428 0.051
0.336 0.043
0.244 0.036
0.152 0.029
0.171 0.07
0.189 0.111
0.207 0.151
0.225 0.192
0.244 0.233
0.262 0.273
0.276 0.275
0.29 0.277
0.305 0.28
0.319 0.282
0.334 0.284
0.348 0.286
0.449 0.277
0.55 0.268
0.65 0.259
0.751 0.25
0.852 0.242
0.953 0.233
0.86 0.218
0.768 0.204
0.675 0.19
0.582 0.176
0.49 0.161
0.397 0.147
0.423 0.226
0.449 0.304
0.474 0.383
0.5 0.461
0.526 0.54
0.552 0.619
0.49 0.536
0.428 0.454
0.367 0.372
0.305 0.29
0.243 0.208
0.182 0.126
0.184 0.143
0.186 0.16
0.188 0.177
0.19 0.194
0.192 0.211
0.194 0.228
0.306 0.222
0.418 0.216
0.531 0.211
0.643 0.205
0.755 0.199
0.867 0.194
0.752 0.185
0.636 0.175
0.52 0.166
0.405 0.157
0.289 0.147
0.174 0.138
0.205 0.163
0.235 0.188
0.266 0.214
0.297 0.239
0.328 0.264
0.359 0.289
0.346 0.297
0.332 0.305
0.319 0.313
0.306 0.321
0.293 0.329
0.28 0.337
0.394 0.333
0.508 0.329
0.623 0.325
0.737 0.321
0.851 0.317
0.965 0.313
0.918 0.271
0.87 0.229
0.822 0.187
0.774 0.145
0.726 0.103
0.678 0.061
0.654 0.113
0.629 0.164
0.604 0.216
0.58 0.268
0.555 0.319
0.531 0.371
0.493 0.329
0.455 0.287
0.418 0.246
0.38 0.204
0.342 0.162
0.305 0.121
0.27 0.13
0.235 0.14
0.2 0.15
0.165 0.16
0.13 0.17
0.095 0.18
0.238 0.247
0.382 0.314
0.525 0.381
0.668 0.448
0.811 0.515
0.954 0.581
0.859 0.509
0.763 0.436
0.667 0.363
0.572 0.29
0.476 0.217
0.38 0.144
0.394 0.194
0.407 0.244
0.421 0.293
0.434 0.343
0.448 0.393
0.461 0.443
0.437 0.432
0.413 0.421
0.389 0.41
0.365 0.399
0.34 0.388
0.316 0.377
0.382 0.347
0.447 0.317
0.513 0.287
0.578 0.256
0.644 0.226
0.709 0.196
0.732 0.179
0.755 0.161
0.778 0.144
0.8 0.127
0.823 0.11
0.846 0.093
0.772 0.125
0.699 0.157
0.625 0.188
0.551 0.22
0.477 0.252
0.404 0.284
0.406 0.307
0.409 0.33
0.411 0.353
0.413 0.375
0.416 0.398
0.418 0.421
0.383 0.379
0.348 0.337
0.312 0.294
0.277 0.252
0.242 0.21
0.207 0.168
0.332 0.263
0.458 0.358
0.584 0.453
0.709 0.548
0.835 0.643
0.96 0.738
0.904 0.637
0.847 0.536
0.791 0.435
0.734 0.334
0.678 0.233
0.621 0.132
0.594 0.177
0.566 0.221
0.538 0.266
0.511 0.31
0.483 0.355
0.456 0.399
0.415 0.371
0.374 0.342
0.333 0.313
0.292 0.284
0.251 0.255
0.21 0.226
0.224 0.244
0.239 0.262
0.253 0.28
0.268 0.298
0.282 0.316
0.297 0.334
0.404 0.302
0.512 0.27
0.619 0.238
0.727 0.206
0.834 0.174
0.942 0.142
0.841 0.178
0.74 0.214
0.639 0.25
0.539 0.287
0.438 0.323
0.337 0.359
0.374 0.389
0.411 0.419
0.448 0.449
0.485 0.479
0.522 0.509
0.56 0.539
0.503 0.474
0.447 0.408
0.39 0.343
0.334 0.278
0.278 0.213
0.221 0.148
0.33 0.201
0.439 0.254
0.548 0.307
0.656 0.36
0.765 0.413
0.874 0.466
0.866 0.413
0.857 0.359
0.849 0.305
0.841 0.252
0.832 0.198
0.824 0.144
0.724 0.128
0.623 0.111
0.523 0.095
0.423 0.079
0.323 0.062
0.222 0.046
0.228 0.09
0.233 0.135
0.238 0.179
0.244 0.223
0.249 0.268
0.255 0.312
0.256 0.313
0.257 0.314
0.259 0.315
0.26 0.316
0.262 0.317
0.263 0.318
0.381 0.322
0.498 0.326
0.616 0.33
0.733 0.334
0.851 0.339
0.968 0.343
0.905 0.299
0.841 0.255
0.777 0.212
0.714 0.168
0.65 0.124
0.586 0.08
0.603 0.182
0.619 0.284
0.635 0.385
0.652 0.487
0.668 0.588
0.685 0.69
0.625 0.586
0.566 0.482
0.507 0.378
0.447 0.274
0.388 0.17
0.328 0.066
0.305 0.094
0.282 0.122
0.258 0.149
0.235 0.177
0.211 0.205
0.188 0.232
0.312 0.256
0.436 0.279
0.561 0.302
0.685 0.325
0.809 0.348
0.934 0.371
0.827 0.335
0.72 0.299
0.614 0.263
0.507 0.227
0.4 0.191
0.294 0.154
0.31 0.199
0.326 0.243
0.343 0.288
0.359 0.332
0.375 0.377
0.391 0.421
0.405 0.417
0.419 0.413
0.432 0.408
0.446 0.404
0.459 0.4
0.473 0.396
0.549 0.378
0.626 0.361
0.702 0.344
0.778 0.327
0.854 0.309
0.931 0.292
0.911 0.259
0.891 0.227
0.871 0.194
0.851 0.161
0.831 0.129
0.811 0.096
0.733 0.129
0.655 0.163
0.577 0.196
0.499 0.229
0.421 0.263
0.343 0.296
0.356 0.3
0.37 0.304
0.383 0.309
0.397 0.313
0.41 0.317
0.423 0.322
0.387 0.303
0.351 0.285
0.314 0.267
0.278 0.249
0.241 0.231
0.205 0.213
0.333 0.295
0.46 0.377
0.587 0.459
0.715 0.541
0.842 0.623
0.97 0.705
0.9 0.606
0.83 0.507
0.76 0.408
0.69 0.309
0.62 0.21
0.55 0.111
0.547 0.174
0.543 0.236
0.54 0.299
0.536 0.361
0.533 0.424
0.529 0.486
0.484 0.439
0.439 0.392
0.394 0.344
0.349 0.297
0.304 0.249
0.259 0.202
0.258 0.22
0.257 0.239
0.256 0.257
0.256 0.276
0.255 0.294
0.254 0.313
0.362 0.284
0.47 0.256
0.578 0.227
0.686 0.199
0.794 0.17
0.901 0.142
0.806 0.164
0.711 0.187
0.616 0.21
0.521 0.232
0.426 0.255
0.331 0.277
0.377 0.339
0.422 0.4
0.468 0.462
0.513 0.523
0.559 0.585
0.604 0.646
0.546 0.564
0.488 0.482
0.43 0.399
0.372 0.317
0.314 0.235
0.256 0.152
0.367 0.223
0.478 0.294
0.589 0.365
0.7 0.436
0.811 0.507
0.922 0.578
0.898 0.498
0.873 0.418
0.849 0.339
0.825 0.259
0.8 0.18
0.776 0.1
0.68 0.09
0.584 0.081
0.488 0.071
0.392 0.062
0.296 0.052
0.2 0.043
0.217 0.07
0.234 0.098
0.25 0.125
0.267 0.153
0.284 0.18
0.301 0.208
0.305 0.238
0.31 0.269
0.314 0.299
0.318 0.33
0.322 0.36
0.326 0.391
0.433 0.375
0.539 0.359
0.645 0.343
0.752 0.327
0.858 0.311
0.964 0.295
0.883 0.272
0.802 0.248
0.721 0.224
0.64 0.2
0.559 0.176
0.478 0.153
0.508 0.239
0.539 0.324
0.569 0.41
0.599 0.496
0.63 0.582
0.66 0.668
0.607 0.578
0.554 0.489
0.502 0.4
0.449 0.31
0.396 0.221
0.343 0.131
0.322 0.149
0.301 0.166
0.28 0.184
0.259 0.202
0.238 0.219
0.217 0.237
0.329 0.238
0.442 0.24
0.554 0.241
0.666 0.243
0.779 0.244
0.891 0.246
0.776 0.23
0.661 0.214
0.546 0.199
0.431 0.183
0.316 0.167
0.201 0.151
0.233 0.176
0.264 0.2
0.296 0.224
0.328 0.248
0.36 0.273
0.391 0.297
0.391 0.31
0.39 0.322
0.39 0.335
0.389 0.348
0.389 0.36
0.389 0.373
0.484 0.377
0.579 0.38
0.674 0.384
0.769 0.388
0.865 0.391
0.96 0.395
0.924 0.342
0.888 0.289
0.853 0.235
0.817 0.182
0.782 0.129
0.746 0.076
0.675 0.111
0.604 0.145
0.533 0.18
0.462 0.215
0.391 0.25
0.32 0.284
0.332 0.296
0.345 0.308
0.357 0.32
0.37 0.332
0.382 0.344
0.394 0.356
0.358 0.331
0.321 0.306
0.285 0.281
0.248 0.256
0.211 0.231
0.175 0.206
0.307 0.282
0.438 0.358
0.57 0.435
0.702 0.511
0.833 0.587
0.965 0.663
0.883 0.574
0.801 0.485
0.719 0.395
0.637 0.306
0.554 0.217
0.472 0.127
0.464 0.187
0.456 0.246
0.447 0.305
0.439 0.364
0.431 0.424
0.422 0.483
0.396 0.435
0.371 0.387
0.345 0.34
0.319 0.292
0.293 0.244
0.267 0.196
0.273 0.208
0.28 0.219
0.286 0.23
0.292 0.242
0.298 0.253
0.304 0.264
0.399 0.241
0.494 0.218
0.589 0.195
0.684 0.172
0.779 0.149
0.874 0.126
0.794 0.148
0.714 0.169
0.634 0.191
0.554 0.213
0.474 0.234
0.394 0.256
0.394 0.304
0.394 0.353
0.394 0.401
0.394 0.449
0.394 0.498
0.394 0.546
0.371 0.474
0.347 0.402
0.324 0.33
0.301 0.258
0.277 0.186
0.254 0.114
0.369 0.205
0.484 0.296
0.599 0.387
0.715 0.478
0.83 0.569
0.945 0.66
0.904 0.563
0.862 0.465
0.821 0.368
0.78 0.271
0.738 0.173
0.697 0.076
0.611 0.07
0.524 0.064
0.438 0.058
0.352 0.052
0.265 0.046
0.179 0.04
0.189 0.082
0.2 0.124
0.21 0.166
0.221 0.208
0.231 0.25
0.241 0.292
0.257 0.29
0.273 0.288
0.289 0.286
0.305 0.284
0.32 0.282
0.336 0.28
0.439 0.265
0.542 0.25
0.645 0.235
0.748 0.22
0.85 0.205
0.953 0.19
0.86 0.194
0.767 0.198
0.674 0.202
0.581 0.205
0.488 0.209
0.395 0.213
0.423 0.274
0.45 0.335
0.477 0.397
0.504 0.458
0.531 0.519
0.558 0.58
0.499 0.502
0.44 0.424
0.381 0.346
0.322 0.268
0.262 0.189
0.203 0.111
0.203 0.14
0.203 0.168
0.203 0.197
0.204 0.225
0.204 0.253
0.204 0.282
0.313 0.268
0.421 0.254
0.53 0.24
0.639 0.226
0.748 0.212
0.856 0.198
0.743 0.182
0.629 0.165
0.516 0.149
0.402 0.132
0.289 0.116
0.175 0.099
0.206 0.132
0.236 0.165
0.266 0.197
0.296 0.23
0.326 0.263
0.356 0.296
0.342 0.31
0.328 0.325
0.313 0.34
0.299 0.354
0.285 0.369
0.27 0.383
0.386 0.367
0.501 0.35
0.617 0.334
0.732 0.318
0.847 0.301
0.963 0.285
0.915 0.247
0.867 0.21
0.818 0.172
0.77 0.135
0.722 0.098
0.674 0.06
0.65 0.108
0.627 0.156
0.603 0.203
0.58 0.251
0.556 0.298
0.532 0.346
0.493 0.309
0.453 0.272
0.413 0.235
0.373 0.198
0.333 0.162
0.294 0.125
0.261 0.13
0.228 0.135
0.195 0.14
0.162 0.145
0.129 0.15
0.096 0.155
0.239 0.212
0.381 0.27
0.524 0.327
0.666 0.385
0.809 0.442
0.951 0.5
0.855 0.439
0.758 0.379
0.661 0.318
0.564 0.258
0.467 0.197
0.37 0.137
0.383 0.188
0.395 0.239
0.407 0.29
0.419 0.341
0.432 0.392
0.444 0.443
0.422 0.431
0.401 0.419
0.379 0.406
0.357 0.394
0.336 0.381
0.314 0.369
0.332 0.357
0.35 0.345
0.367 0.333
0.385 0.321
0.403 0.309
0.421 0.297
0.491 0.275
0.561 0.254
0.632 0.232
0.702 0.21
0.772 0.189
0.843 0.167
0.77 0.209
0.697 0.251
0.624 0.293
0.551 0.334
0.478 0.376
0.406 0.418
0.407 0.42
0.409 0.421
0.41 0.423
0.412 0.425
0.413 0.427
0.415 0.428
0.38 0.375
0.344 0.321
0.309 0.267
0.274 0.214
0.239 0.16
0.204 0.107
0.229 0.164
0.253 0.222
0.278 0.28
0.303 0.337
0.328 0.395
0.353 0.453
0.423 0.47
0.494 0.488
0.565 0.505
0.636 0.523
0.706 0.54
0.777 0.558
0.756 0.549
0.735 0.54
0.715 0.531
0.694 0.522
0.673 0.513
0.652 0.504
0.578 0.461
0.503 0.418
0.429 0.375
0.354 0.332
0.28 0.289
0.205 0.245
0.235 0.248
0.264 0.252
0.293 0.255
0.322 0.258
0.352 0.261
0.381 0.264
0.357 0.264
0.333 0.264
0.308 0.264
0.284 0.264
0.26 0.264
0.236 0.263
0.24 0.29
0.245 0.317
0.249 0.344
0.253 0.371
0.258 0.398
0.262 0.425
0.343 0.437
0.424 0.449
0.505 0.461
0.586 0.472
0.667 0.484
0.748 0.496
0.69 0.487
0.632 0.477
0.574 0.468
0.515 0.459
0.457 0.45
0.399 0.44
0.447 0.477
0.495 0.513
0.542 0.55
0.59 0.586
0.638 0.623
0.685 0.659
0.571 0.644
0.457 0.629
0.343 0.614
0.228 0.599
0.114 0.584
0.0 0.569
0.095 0.528
0.191 0.487
0.286 0.447
0.382 0.406
0.477 0.365
0.573 0.324
0.514 0.311
0.455 0.298
0.397 0.285
0.338 0.272
0.279 0.259
0.22 0.246
0.229 0.257
0.239 0.268
0.248 0.279
0.257 0.29
0.266 0.301
0.275 0.312
0.34 0.375
0.404 0.438
0.469 0.501
0.533 0.564
0.598 0.626
0.662 0.689
0.63 0.622
0.599 0.554
0.567 0.486
0.535 0.419
0.503 0.351
0.471 0.283
0.511 0.375
0.551 0.466
0.591 0.557
0.631 0.649
0.671 0.74
0.711 0.832
0.68 0.738
0.649 0.643
0.617 0.549
0.586 0.455
0.555 0.361
0.524 0.267
0.517 0.258
0.509 0.25
0.502 0.241
0.495 0.232
0.488 0.223
0.48 0.215
0.558 0.236
0.636 0.257
0.713 0.278
0.791 0.299
0.869 0.32
0.946 0.341
0.893 0.306
0.84 0.27
0.787 0.234
0.734 0.198
0.681 0.162
0.628 0.126
0.591 0.219
0.553 0.313
0.515 0.406
0.478 0.5
0.44 0.593
0.403 0.686
0.413 0.637
0.423 0.588
0.433 0.538
0.443 0.489
0.453 0.44
0.463 0.39
0.536 0.418
0.608 0.447
0.68 0.475
0.753 0.503
0.825 0.531
0.897 0.56
0.888 0.478
0.88 0.397
0.871 0.316
0.862 0.235
0.853 0.153
0.844 0.072
0.793 0.11
0.742 0.148
0.69 0.186
0.639 0.225
0.587 0.263
0.536 0.301
0.512 0.301
0.488 0.301
0.464 0.302
0.44 0.302
0.417 0.303
0.393 0.303
0.358 0.292
0.323 0.28
0.289 0.269
0.254 0.257
0.219 0.246
0.185 0.234
0.314 0.319
0.444 0.404
0.573 0.488
0.703 0.573
0.833 0.657
0.962 0.742
0.924 0.657
0.887 0.573
0.849 0.488
0.811 0.404
0.774 0.32
0.736 0.235
0.705 0.346
0.673 0.456
0.642 0.566
0.61 0.677
0.579 0.787
0.547 0.898
0.489 0.779
0.432 0.66
0.374 0.541
0.316 0.422
0.258 0.304
0.2 0.185
0.255 0.204
0.31 0.222
0.365 0.241
0.42 0.26
0.475 0.279
0.53 0.298
0.595 0.284
0.66 0.269
0.725 0.255
0.79 0.241
0.855 0.226
0.92 0.212
0.87 0.221
0.82 0.23
0.77 0.239
0.72 0.248
0.67 0.257
0.62 0.266
0.623 0.341
0.625 0.416
0.628 0.491
0.63 0.566
0.633 0.641
0.635 0.716
0.605 0.627
0.575 0.539
0.546 0.45
0.516 0.362
0.486 0.273
0.456 0.185
0.537 0.258
0.618 0.332
0.699 0.406
0.78 0.479
0.861 0.553
0.942 0.627
0.923 0.536
0.905 0.445
0.887 0.354
0.868 0.263
0.85 0.172
0.832 0.081
0.778 0.088
0.724 0.094
0.67 0.101
0.615 0.108
0.561 0.115
0.507 0.121
0.473 0.143
0.439 0.166
0.405 0.188
0.371 0.21
0.338 0.232
0.304 0.254
0.301 0.256
0.298 0.258
0.296 0.26
0.293 0.262
0.29 0.264
0.287 0.266
0.402 0.27
0.516 0.273
0.631 0.277
0.745 0.28
0.86 0.284
0.974 0.287
0.953 0.334
0.933 0.381
0.912 0.428
0.891 0.475
0.871 0.522
0.85 0.569
0.807 0.608
0.764 0.647
0.721 0.686
0.677 0.725
0.634 0.764
0.591 0.803
0.547 0.691
0.503 0.578
0.459 0.466
0.414 0.353
0.37 0.241
0.326 0.128
0.372 0.162
0.418 0.195
0.464 0.229
0.51 0.263
0.556 0.296
0.602 0.33
0.655 0.307
0.708 0.285
0.761 0.262
0.813 0.239
0.866 0.216
0.919 0.194
0.862 0.214
0.804 0.235
0.747 0.255
0.689 0.275
0.632 0.296
0.575 0.316
0.533 0.393
0.492 0.469
0.45 0.546
0.409 0.623
0.368 0.699
0.326 0.776
0.365 0.694
0.403 0.613
0.442 0.531
0.48 0.449
0.518 0.368
0.557 0.286
0.621 0.288
0.685 0.289
0.749 0.29
0.813 0.292
0.877 0.293
0.942 0.295
0.92 0.282
0.898 0.269
0.877 0.256
0.855 0.243
0.834 0.23
0.812 0.217
0.76 0.226
0.709 0.236
0.657 0.245
0.605 0.255
0.554 0.264
0.502 0.274
0.512 0.288
0.521 0.303
0.531 0.317
0.54 0.332
0.55 0.347
0.559 0.361
0.546 0.343
0.532 0.325
0.519 0.307
0.505 0.289
0.492 0.271
0.478 0.253
0.559 0.326
0.64 0.399
0.721 0.472
0.802 0.545
0.883 0.618
0.964 0.691
0.921 0.583
0.877 0.475
0.833 0.367
0.789 0.26
0.746 0.152
0.702 0.044
0.675 0.164
0.649 0.284
0.622 0.404
0.595 0.524
0.569 0.644
0.542 0.764
0.49 0.67
0.439 0.576
0.387 0.482
0.336 0.389
0.284 0.295
0.233 0.201
0.241 0.206
0.25 0.211
0.258 0.216
0.267 0.221
0.275 0.227
0.284 0.232
0.386 0.206
0.488 0.18
0.589 0.155
0.691 0.129
0.793 0.103
0.895 0.078
0.842 0.109
0.789 0.14
0.736 0.171
0.682 0.203
0.629 0.234
0.576 0.265
0.546 0.305
0.516 0.346
0.486 0.386
0.455 0.427
0.425 0.467
0.395 0.508
0.366 0.437
0.338 0.367
0.309 0.296
0.281 0.226
0.252 0.156
0.224 0.085
0.345 0.197
0.466 0.308
0.587 0.419
0.708 0.531
0.829 0.642
0.95 0.754
0.924 0.645
0.897 0.536
0.871 0.426
0.845 0.317
0.819 0.208
0.793 0.099
0.748 0.124
0.704 0.149
0.66 0.173
0.615 0.198
0.571 0.223
0.526 0.248
0.477 0.246
0.427 0.244
0.378 0.241
0.328 0.239
0.278 0.237
0.229 0.235
0.3 0.248
0.372 0.262
0.443 0.275
0.515 0.288
0.586 0.302
0.658 0.315
0.709 0.305
0.76 0.295
0.812 0.285
0.863 0.275
0.914 0.265
0.965 0.255
0.918 0.244
0.872 0.234
0.825 0.223
0.778 0.212
0.731 0.201
0.684 0.19
0.673 0.3
0.662 0.409
0.651 0.519
0.639 0.629
0.628 0.739
0.617 0.849
0.593 0.746
0.568 0.644
0.544 0.542
0.52 0.44
0.495 0.337
0.471 0.235
0.457 0.23
0.443 0.225
0.43 0.22
0.416 0.215
0.402 0.209
0.388 0.204
0.469 0.198
0.55 0.193
0.631 0.187
0.712 0.181
0.793 0.176
0.874 0.17
0.823 0.169
0.773 0.167
0.722 0.166
0.671 0.165
0.621 0.164
0.57 0.162
0.539 0.208
0.509 0.253
0.478 0.299
0.447 0.344
0.416 0.39
0.386 0.435
0.371 0.417
0.356 0.399
0.341 0.381
0.326 0.363
0.312 0.345
0.297 0.327
0.405 0.34
0.512 0.353
0.62 0.367
0.728 0.38
0.835 0.393
0.943 0.406
0.917 0.346
0.891 0.286
0.864 0.226
0.838 0.165
0.812 0.105
0.786 0.045
0.743 0.134
0.7 0.224
0.657 0.313
0.615 0.402
0.572 0.492
0.529 0.581
0.49 0.509
0.451 0.437
0.411 0.365
0.372 0.293
0.333 0.221
0.294 0.149
0.347 0.176
0.401 0.203
0.455 0.229
0.508 0.256
0.562 0.283
0.616 0.31
0.673 0.357
0.73 0.405
0.788 0.452
0.845 0.5
0.903 0.547
0.96 0.594
0.911 0.556
0.862 0.518
0.814 0.479
0.765 0.441
0.716 0.403
0.667 0.364
0.64 0.437
0.613 0.51
0.585 0.584
0.558 0.657
0.53 0.73
0.503 0.803
0.446 0.704
0.389 0.605
0.332 0.506
0.276 0.407
0.219 0.308
0.162 0.209
0.266 0.212
0.369 0.214
0.473 0.217
0.576 0.219
0.679 0.222
0.783 0.224
0.797 0.219
0.812 0.213
0.826 0.207
0.84 0.202
0.854 0.196
0.869 0.19
0.817 0.198
0.765 0.206
0.713 0.213
0.661 0.221
0.609 0.228
0.557 0.236
0.569 0.281
0.581 0.325
0.593 0.37
0.605 0.415
0.617 0.46
0.629 0.505
0.598 0.459
0.568 0.413
0.537 0.367
0.507 0.321
0.476 0.275
0.446 0.229
0.53 0.312
0.614 0.395
0.698 0.478
0.782 0.561
0.866 0.644
0.95 0.727
0.917 0.613
0.885 0.499
0.853 0.385
0.82 0.271
0.788 0.157
0.756 0.043
0.706 0.189
0.656 0.335
0.606 0.481
0.556 0.628
0.506 0.774
0.456 0.92
0.414 0.812
0.371 0.704
0.328 0.596
0.285 0.488
0.243 0.38
0.2 0.272
0.216 0.281
0.232 0.291
0.248 0.301
0.264 0.311
0.281 0.321
0.297 0.331
0.405 0.299
0.512 0.267
0.62 0.234
0.728 0.202
0.836 0.17
0.944 0.138
0.894 0.161
0.845 0.184
0.795 0.207
0.745 0.23
0.696 0.253
0.646 0.276
0.632 0.331
0.618 0.386
0.604 0.442
0.589 0.497
0.575 0.553
0.561 0.608
0.508 0.53
0.455 0.451
0.402 0.373
0.349 0.294
0.296 0.216
0.243 0.138
0.359 0.215
0.474 0.292
0.59 0.369
0.705 0.447
0.821 0.524
0.936 0.601
0.922 0.521
0.908 0.44
0.893 0.36
0.879 0.279
0.865 0.198
0.85 0.118
0.807 0.155
0.764 0.192
0.721 0.228
0.677 0.265
0.634 0.302
0.591 0.339
0.531 0.38
0.471 0.421
0.411 0.463
0.351 0.504
0.292 0.545
0.232 0.587
0.297 0.545
0.362 0.503
0.427 0.46
0.492 0.418
0.557 0.376
0.622 0.334
0.679 0.339
0.736 0.343
0.793 0.347
0.85 0.352
0.907 0.356
0.963 0.361
0.928 0.333
0.893 0.305
0.858 0.277
0.822 0.249
0.787 0.221
0.752 0.193
0.743 0.267
0.734 0.342
0.725 0.416
0.715 0.49
0.706 0.565
0.697 0.639
0.651 0.561
0.604 0.483
0.558 0.405
0.511 0.326
0.464 0.248
0.418 0.17
0.421 0.171
0.424 0.172
0.426 0.172
0.429 0.173
0.432 0.174
0.435 0.175
0.52 0.2
0.605 0.226
0.691 0.252
0.776 0.277
0.861 0.303
0.946 0.329
0.894 0.289
0.841 0.249
0.788 0.209
0.736 0.169
0.683 0.129
0.63 0.089
0.592 0.193
0.554 0.297
0.516 0.401
0.478 0.506
0.44 0.61
0.401 0.714
0.411 0.657
0.421 0.6
0.431 0.544
0.441 0.487
0.451 0.43
0.461 0.373
0.536 0.403
0.611 0.432
0.686 0.461
0.761 0.49
0.836 0.519
0.911 0.548
0.899 0.475
0.887 0.401
0.874 0.328
0.862 0.254
0.85 0.181
0.838 0.107
0.785 0.195
0.732 0.283
0.678 0.371
0.625 0.458
0.572 0.546
0.518 0.634
0.5 0.58
0.482 0.527
0.464 0.473
0.445 0.42
0.427 0.366
0.409 0.312
0.442 0.31
0.474 0.307
0.507 0.305
0.54 0.302
0.573 0.3
0.606 0.297
0.665 0.376
0.725 0.455
0.784 0.534
0.843 0.613
0.902 0.692
0.962 0.771
0.924 0.648
0.886 0.526
0.848 0.404
0.81 0.281
0.772 0.159
0.734 0.036
0.698 0.183
0.662 0.33
0.626 0.477
0.589 0.623
0.553 0.77
0.517 0.917
0.464 0.795
0.411 0.674
0.358 0.553
0.305 0.432
0.252 0.31
0.199 0.189
0.271 0.209
0.344 0.229
0.416 0.248
0.489 0.268
0.561 0.288
0.633 0.308
0.682 0.291
0.731 0.274
0.78 0.258
0.829 0.241
0.878 0.225
0.927 0.208
0.876 0.223
0.824 0.237
0.773 0.252
0.722 0.266
0.67 0.281
0.619 0.295
0.621 0.356
0.623 0.417
0.624 0.477
0.626 0.538
0.628 0.598
0.629 0.659
0.605 0.588
0.581 0.518
0.556 0.447
0.532 0.376
0.508 0.305
0.484 0.235
0.555 0.26
0.627 0.285
0.699 0.31
0.771 0.335
0.843 0.36
0.914 0.385
0.898 0.344
0.881 0.304
0.865 0.263
0.849 0.223
0.832 0.183
0.816 0.142
0.764 0.141
0.712 0.139
0.66 0.138
0.608 0.137
0.556 0.135
0.505 0.134
0.472 0.164
0.439 0.193
0.407 0.223
0.374 0.252
0.342 0.282
0.309 0.311
0.307 0.303
0.305 0.295
0.303 0.286
0.301 0.278
0.299 0.27
0.297 0.261
0.409 0.267
0.521 0.273
0.633 0.279
0.745 0.285
0.858 0.291
0.97 0.297
0.925 0.258
0.881 0.218
0.836 0.179
0.791 0.14
0.747 0.101
0.702 0.061
0.687 0.18
0.672 0.299
0.656 0.418
0.641 0.537
0.626 0.655
0.61 0.774
0.565 0.664
0.519 0.553
0.474 0.442
0.428 0.331
0.383 0.221
0.337 0.11
0.312 0.135
0.287 0.159
0.262 0.184
0.237 0.208
0.213 0.233
0.188 0.257
0.31 0.248
0.432 0.239
0.553 0.23
0.675 0.221
0.797 0.211
0.919 0.202
0.864 0.207
0.808 0.213
0.753 0.218
0.698 0.223
0.642 0.228
0.587 0.233
0.544 0.325
0.501 0.417
0.459 0.509
0.416 0.601
0.373 0.692
0.331 0.784
0.377 0.711
0.423 0.637
0.469 0.564
0.515 0.49
0.561 0.416
0.607 0.343
0.579 0.382
0.551 0.421
0.523 0.46
0.495 0.498
0.467 0.537
0.439 0.576
0.441 0.515
0.443 0.454
0.446 0.393
0.448 0.331
0.45 0.27
0.452 0.209
0.435 0.221
0.419 0.234
0.402 0.246
0.385 0.259
0.368 0.271
0.351 0.284
0.38 0.286
0.409 0.288
0.438 0.29
0.467 0.293
0.495 0.295
0.524 0.297
0.523 0.361
0.522 0.424
0.521 0.488
0.52 0.552
0.52 0.615
0.519 0.679
0.475 0.647
0.432 0.615
0.389 0.584
0.345 0.552
0.302 0.52
0.259 0.488
0.264 0.438
0.269 0.387
0.274 0.336
0.279 0.285
0.285 0.234
0.29 0.183
0.305 0.234
0.32 0.286
0.335 0.337
0.35 0.388
0.366 0.439
0.381 0.49
0.345 0.435
0.308 0.379
0.272 0.323
0.236 0.268
0.199 0.212
0.163 0.156
0.236 0.204
0.31 0.251
0.383 0.299
0.457 0.346
0.531 0.393
0.604 0.441
0.544 0.405
0.485 0.369
0.425 0.333
0.366 0.298
0.306 0.262
0.246 0.226
0.205 0.283
0.164 0.34
0.123 0.397
0.082 0.455
0.041 0.512
0.0 0.569
0.119 0.554
0.238 0.54
0.357 0.525
0.476 0.51
0.595 0.496
0.714 0.481
0.7 0.462
0.686 0.443
0.672 0.424
0.658 0.405
0.644 0.386
0.63 0.367
0.629 0.44
0.627 0.512
0.626 0.584
0.624 0.656
0.623 0.729
0.621 0.801
0.534 0.694
0.446 0.586
0.358 0.479
0.271 0.372
0.183 0.264
0.095 0.157
0.183 0.185
0.27 0.212
0.357 0.24
0.444 0.267
0.531 0.295
0.618 0.322
0.55 0.273
0.481 0.223
0.413 0.174
0.344 0.124
0.275 0.075
0.207 0.025
0.279 0.064
0.351 0.103
0.424 0.141
0.496 0.18
0.568 0.219
0.64 0.257
0.692 0.286
0.743 0.314
0.795 0.342
0.846 0.371
0.898 0.399
0.949 0.427
0.946 0.383
0.943 0.339
0.94 0.295
0.937 0.251
0.934 0.206
0.931 0.162
0.931 0.247
0.931 0.331
0.932 0.415
0.932 0.5
0.932 0.584
0.932 0.669
0.931 0.578
0.931 0.487
0.93 0.396
0.929 0.305
0.928 0.214
0.928 0.123
0.928 0.122
0.927 0.122
0.927 0.121
0.927 0.12
0.927 0.12
0.927 0.119
0.914 0.132
0.901 0.144
0.889 0.157
0.876 0.169
0.863 0.182
0.85 0.194
0.803 0.184
0.756 0.175
0.709 0.165
0.662 0.155
0.614 0.146
0.567 0.136
0.596 0.163
0.625 0.189
0.655 0.216
0.684 0.243
0.713 0.27
0.742 0.296
0.779 0.286
0.816 0.276
0.854 0.266
0.891 0.256
0.929 0.246
0.966 0.236
0.958 0.28
0.95 0.324
0.942 0.368
0.934 0.412
0.926 0.457
0.918 0.501
0.919 0.424
0.92 0.347
0.92 0.27
0.921 0.192
0.921 0.115
0.922 0.038
0.923 0.094
0.924 0.15
0.925 0.205
0.926 0.261
0.927 0.317
0.928 0.372
0.841 0.333
0.754 0.293
0.667 0.253
0.58 0.213
0.492 0.174
0.405 0.134
0.438 0.124
0.471 0.114
0.503 0.104
0.536 0.094
0.568 0.084
0.601 0.074
0.662 0.139
0.723 0.203
0.784 0.268
0.846 0.333
0.907 0.397
0.968 0.462
0.917 0.393
0.866 0.325
0.815 0.256
0.764 0.187
0.713 0.119
0.662 0.05
0.706 0.103
0.75 0.156
0.793 0.21
0.837 0.263
0.881 0.316
0.924 0.369
0.922 0.342
0.92 0.315
0.918 0.288
0.916 0.261
0.914 0.234
0.911 0.207
0.907 0.211
0.902 0.215
0.897 0.219
0.892 0.222
0.888 0.226
0.883 0.23
0.889 0.204
0.894 0.179
0.9 0.153
0.906 0.128
0.911 0.102
0.917 0.076
0.917 0.081
0.917 0.086
0.917 0.09
0.917 0.095
0.917 0.1
0.917 0.104
0.919 0.142
0.92 0.179
0.922 0.216
0.924 0.254
0.925 0.291
0.927 0.328
0.926 0.278
0.926 0.228
0.926 0.177
0.925 0.127
0.925 0.077
0.925 0.027
0.932 0.145
0.94 0.263
0.947 0.381
0.955 0.499
0.962 0.617
0.97 0.735
0.935 0.627
0.9 0.518
0.865 0.409
0.83 0.301
0.795 0.192
0.76 0.083
0.725 0.143
0.69 0.203
0.655 0.262
0.621 0.322
0.586 0.381
0.551 0.441
0.605 0.389
0.66 0.337
0.714 0.285
0.769 0.233
0.823 0.181
0.877 0.129
0.889 0.131
0.9 0.134
0.912 0.136
0.923 0.138
0.935 0.141
0.947 0.143
0.942 0.137
0.937 0.132
0.932 0.126
0.928 0.12
0.923 0.114
0.918 0.108
0.919 0.11
0.92 0.111
0.92 0.113
0.921 0.115
0.921 0.117
0.922 0.119
0.886 0.208
0.849 0.297
0.812 0.386
0.776 0.475
0.739 0.564
0.703 0.653
0.651 0.56
0.599 0.468
0.547 0.376
0.495 0.283
0.443 0.191
0.391 0.098
0.481 0.191
0.572 0.283
0.662 0.375
0.752 0.468
0.842 0.56
0.933 0.653
0.92 0.559
0.907 0.466
0.894 0.372
0.881 0.279
0.868 0.185
0.855 0.092
0.803 0.101
0.751 0.11
0.699 0.119
0.647 0.128
0.595 0.136
0.543 0.145
0.604 0.143
0.665 0.141
0.726 0.139
0.786 0.137
0.847 0.134
0.908 0.132
0.909 0.132
0.911 0.133
0.913 0.133
0.915 0.133
0.917 0.134
0.919 0.134
0.928 0.202
0.937 0.271
0.946 0.339
0.955 0.408
0.965 0.476
0.974 0.545
0.966 0.474
0.958 0.403
0.95 0.332
0.941 0.261
0.933 0.19
0.925 0.119
0.911 0.182
0.897 0.245
0.884 0.308
0.87 0.37
0.856 0.433
0.842 0.496
0.856 0.448
0.869 0.4
0.883 0.351
0.897 0.303
0.911 0.255
0.925 0.207
0.925 0.19
0.925 0.174
0.925 0.157
0.925 0.141
0.925 0.124
0.925 0.108
0.928 0.136
0.932 0.164
0.935 0.192
0.939 0.22
0.943 0.248
0.946 0.276
0.896 0.244
0.846 0.212
0.796 0.18
0.746 0.148
0.696 0.116
0.646 0.084
0.647 0.153
0.648 0.223
0.65 0.292
0.651 0.361
0.652 0.43
0.654 0.5
0.707 0.452
0.761 0.404
0.815 0.356
0.869 0.309
0.922 0.261
0.976 0.213
0.968 0.277
0.959 0.34
0.951 0.403
0.943 0.467
0.934 0.53
0.926 0.593
0.926 0.504
0.925 0.416
0.925 0.327
0.925 0.238
0.925 0.149
0.924 0.06
0.925 0.074
0.925 0.088
0.925 0.102
0.925 0.117
0.925 0.131
0.925 0.145
0.852 0.181
0.779 0.218
0.705 0.254
0.632 0.291
0.559 0.327
0.485 0.364
0.493 0.311
0.501 0.259
0.509 0.206
0.517 0.154
0.525 0.101
0.533 0.049
0.607 0.163
0.681 0.277
0.755 0.391
0.829 0.506
0.903 0.62
0.977 0.734
0.937 0.619
0.896 0.505
0.856 0.39
0.816 0.275
0.775 0.161
0.735 0.046
0.752 0.119
0.769 0.192
0.786 0.264
0.803 0.337
0.819 0.41
0.836 0.483
0.85 0.422
0.864 0.361
0.877 0.3
0.891 0.239
0.904 0.179
0.918 0.118
0.917 0.121
0.915 0.125
0.914 0.129
0.913 0.132
0.912 0.136
0.91 0.14
0.913 0.144
0.916 0.147
0.919 0.151
0.921 0.155
0.924 0.159
0.927 0.162
0.865 0.166
0.803 0.17
0.741 0.174
0.68 0.178
0.618 0.182
0.556 0.186
0.62 0.264
0.683 0.343
0.746 0.422
0.81 0.5
0.873 0.579
0.937 0.658
0.94 0.556
0.942 0.454
0.945 0.353
0.948 0.251
0.951 0.15
0.954 0.048
0.953 0.154
0.952 0.259
0.952 0.365
0.951 0.47
0.95 0.576
0.95 0.681
0.951 0.593
0.953 0.505
0.954 0.417
0.956 0.328
0.958 0.24
0.959 0.152
0.923 0.135
0.888 0.117
0.852 0.1
0.816 0.082
0.78 0.065
0.744 0.047
0.778 0.057
0.811 0.067
0.845 0.076
0.878 0.086
0.912 0.096
0.945 0.105
0.949 0.109
0.952 0.113
0.955 0.117
0.958 0.121
0.962 0.125
0.965 0.128
0.93 0.149
0.894 0.169
0.859 0.189
0.824 0.209
0.789 0.23
0.754 0.25
0.774 0.217
0.794 0.184
0.814 0.152
0.834 0.119
0.854 0.086
0.874 0.053
0.891 0.148
0.909 0.243
0.927 0.338
0.944 0.433
0.962 0.528
0.98 0.622
0.975 0.549
0.969 0.476
0.964 0.402
0.959 0.329
0.953 0.256
0.948 0.183
0.929 0.174
0.911 0.166
0.893 0.158
0.874 0.15
0.856 0.142
0.837 0.134
0.85 0.143
0.863 0.152
0.876 0.16
0.888 0.169
0.901 0.178
0.914 0.187
0.9 0.171
0.886 0.155
0.872 0.139
0.858 0.123
0.844 0.107
0.83 0.091
0.844 0.118
0.858 0.144
0.873 0.171
0.887 0.198
0.902 0.224
0.916 0.251
0.916 0.24
0.917 0.228
0.917 0.217
0.917 0.205
0.917 0.194
0.918 0.182
0.921 0.267
0.924 0.353
0.928 0.438
0.931 0.523
0.934 0.608
0.938 0.693
0.936 0.603
0.934 0.512
0.932 0.421
0.93 0.33
0.928 0.239
0.926 0.149
0.926 0.145
0.926 0.141
0.926 0.137
0.926 0.133
0.925 0.129
0.925 0.125
0.926 0.142
0.926 0.158
0.926 0.174
0.927 0.191
0.927 0.207
0.927 0.224
0.927 0.206
0.927 0.188
0.927 0.169
0.926 0.151
0.926 0.133
0.926 0.115
0.935 0.197
0.945 0.279
0.955 0.361
0.965 0.443
0.975 0.526
0.984 0.608
0.935 0.518
0.887 0.428
0.838 0.338
0.789 0.248
0.74 0.159
0.692 0.069
0.678 0.134
0.665 0.199
0.652 0.265
0.639 0.33
0.626 0.395
0.613 0.46
0.669 0.41
0.724 0.36
0.78 0.309
0.836 0.259
0.892 0.208
0.948 0.158
0.946 0.153
0.945 0.149
0.943 0.144
0.942 0.14
0.94 0.135
0.939 0.131
0.935 0.123
0.932 0.116
0.929 0.108
0.925 0.101
0.922 0.093
0.919 0.086
0.92 0.095
0.92 0.105
0.921 0.115
0.922 0.125
0.923 0.134
0.924 0.144
0.867 0.204
0.81 0.264
0.752 0.323
0.695 0.383
0.638 0.443
0.58 0.503
0.566 0.437
0.553 0.37
0.539 0.304
0.525 0.238
0.511 0.172
0.497 0.106
0.567 0.209
0.637 0.313
0.707 0.417
0.777 0.521
0.847 0.625
0.917 0.729
0.896 0.616
0.875 0.503
0.854 0.391
0.833 0.278
0.812 0.165
0.791 0.052
0.736 0.081
0.681 0.109
0.626 0.138
0.57 0.167
0.515 0.195
0.46 0.224
0.537 0.205
0.613 0.186
0.69 0.167
0.766 0.148
0.843 0.13
0.919 0.111
0.919 0.124
0.919 0.136
0.918 0.149
0.918 0.162
0.918 0.175
0.917 0.188
0.923 0.192
0.929 0.196
0.935 0.2
0.941 0.204
0.947 0.208
0.953 0.212
0.948 0.184
0.942 0.155
0.937 0.127
0.931 0.098
0.926 0.07
0.92 0.041
0.924 0.151
0.928 0.261
0.932 0.371
0.936 0.481
0.94 0.59
0.944 0.7
0.94 0.587
0.937 0.474
0.933 0.361
0.93 0.247
0.926 0.134
0.923 0.021
0.923 0.101
0.923 0.182
0.924 0.263
0.924 0.343
0.924 0.424
0.924 0.505
0.913 0.44
0.902 0.375
0.89 0.311
0.879 0.246
0.868 0.181
0.857 0.117
0.812 0.124
0.767 0.132
0.723 0.139
0.678 0.147
0.633 0.154
0.589 0.161
0.612 0.188
0.635 0.214
0.658 0.24
0.681 0.266
0.705 0.292
0.728 0.318
0.767 0.295
0.806 0.273
0.846 0.251
0.885 0.228
0.924 0.206
0.963 0.183
0.956 0.235
0.949 0.286
0.942 0.337
0.934 0.389
0.927 0.44
0.92 0.492
0.92 0.426
0.92 0.36
0.921 0.294
0.921 0.228
0.921 0.161
0.921 0.095
0.922 0.15
0.922 0.205
0.922 0.259
0.922 0.314
0.923 0.368
0.923 0.423
0.833 0.367
0.743 0.311
0.653 0.255
0.564 0.199
0.474 0.143
0.384 0.087
0.42 0.084
0.456 0.081
0.492 0.078
0.528 0.075
0.564 0.072
0.6 0.069
0.661 0.139
0.721 0.208
0.782 0.278
0.843 0.348
0.904 0.417
0.964 0.487
0.915 0.413
0.865 0.339
0.816 0.264
0.766 0.19
0.717 0.116
0.667 0.042
0.709 0.097
0.75 0.152
0.791 0.206
0.833 0.261
0.874 0.316
0.915 0.371
0.912 0.345
0.909 0.319
0.906 0.293
0.903 0.267
0.899 0.241
0.896 0.215
0.888 0.227
0.879 0.24
0.87 0.252
0.862 0.264
0.853 0.276
0.844 0.289
0.858 0.267
0.873 0.245
0.887 0.223
0.901 0.201
0.915 0.179
0.929 0.157
0.927 0.151
0.926 0.144
0.924 0.138
0.923 0.132
0.921 0.125
0.92 0.119
0.921 0.159
0.923 0.199
0.924 0.24
0.926 0.28
0.927 0.32
0.928 0.36
0.928 0.32
0.928 0.279
0.928 0.239
0.928 0.198
0.928 0.158
0.928 0.117
0.936 0.218
0.944 0.319
0.951 0.419
0.959 0.52
0.966 0.621
0.974 0.721
0.938 0.608
0.902 0.495
0.866 0.381
0.831 0.268
0.795 0.155
0.759 0.041
0.727 0.106
0.694 0.171
0.662 0.236
0.63 0.301
0.598 0.366
0.566 0.431
0.619 0.381
0.672 0.332
0.725 0.283
0.778 0.234
0.831 0.184
0.884 0.135
0.894 0.138
0.905 0.142
0.916 0.145
0.927 0.148
0.937 0.151
0.948 0.154
0.944 0.144
0.939 0.133
0.935 0.122
0.931 0.112
0.926 0.101
0.922 0.091
0.923 0.096
0.923 0.1
0.924 0.105
0.925 0.11
0.925 0.115
0.926 0.12
0.88 0.205
0.833 0.289
0.787 0.374
0.74 0.458
0.694 0.543
0.647 0.627
0.604 0.54
0.561 0.453
0.519 0.366
0.476 0.278
0.433 0.191
0.39 0.104
0.479 0.194
0.568 0.285
0.657 0.375
0.746 0.465
0.835 0.556
0.924 0.646
0.912 0.553
0.9 0.461
0.887 0.368
0.875 0.276
0.863 0.183
0.85 0.091
0.799 0.101
0.749 0.111
0.698 0.121
0.647 0.131
0.597 0.141
0.546 0.151
0.607 0.148
0.669 0.144
0.731 0.141
0.792 0.137
0.854 0.133
0.916 0.13
0.917 0.128
0.918 0.126
0.919 0.124
0.921 0.122
0.922 0.121
0.923 0.119
0.91 0.196
0.896 0.273
0.882 0.35
0.869 0.427
0.855 0.504
0.841 0.581
0.795 0.512
0.75 0.443
0.704 0.374
0.658 0.305
0.612 0.236
0.566 0.167
0.534 0.215
0.503 0.263
0.471 0.312
0.439 0.36
0.407 0.408
0.375 0.456
0.34 0.404
0.304 0.352
0.269 0.3
0.233 0.248
0.198 0.196
0.162 0.144
0.229 0.202
0.295 0.26
0.361 0.318
0.427 0.376
0.494 0.433
0.56 0.491
0.512 0.473
0.463 0.454
0.415 0.435
0.367 0.416
0.318 0.398
0.27 0.379
0.347 0.4
0.424 0.421
0.501 0.443
0.578 0.464
0.655 0.485
0.732 0.506
0.61 0.517
0.488 0.527
0.366 0.538
0.244 0.548
0.122 0.558
0.0 0.569
0.102 0.522
0.205 0.475
0.307 0.428
0.409 0.381
0.511 0.334
0.614 0.287
0.581 0.314
0.549 0.342
0.517 0.369
0.485 0.396
0.452 0.423
0.42 0.45
0.383 0.401
0.346 0.351
0.309 0.302
0.272 0.252
0.235 0.203
0.198 0.153
0.222 0.176
0.246 0.199
0.27 0.221
0.293 0.244
0.317 0.267
0.341 0.29
0.284 0.336
0.227 0.383
0.171 0.429
0.114 0.476
0.057 0.522
0.0 0.569
0.123 0.55
0.246 0.531
0.369 0.512
0.493 0.494
0.616 0.475
0.739 0.456
0.663 0.445
0.587 0.433
0.511 0.422
0.435 0.41
0.359 0.399
0.283 0.387
0.265 0.358
0.247 0.329
0.229 0.299
0.211 0.27
0.193 0.24
0.176 0.211
0.227 0.26
0.278 0.308
0.329 0.357
0.38 0.405
0.431 0.454
0.482 0.503
0.436 0.435
0.39 0.367
0.344 0.299
0.298 0.231
0.252 0.164
0.206 0.096
0.223 0.128
0.24 0.16
0.256 0.192
0.273 0.224
0.29 0.257
0.307 0.289
0.415 0.254
0.523 0.22
0.63 0.185
0.738 0.151
0.846 0.116
0.954 0.082
0.941 0.084
0.927 0.086
0.914 0.087
0.9 0.089
0.887 0.091
0.874 0.093
0.881 0.211
0.889 0.329
0.896 0.447
0.904 0.565
0.912 0.684
0.919 0.802
0.918 0.671
0.916 0.54
0.914 0.41
0.913 0.279
0.911 0.148
0.91 0.018
0.91 0.113
0.911 0.209
0.912 0.304
0.912 0.4
0.913 0.496
0.914 0.591
0.9 0.509
0.887 0.427
0.873 0.345
0.86 0.263
0.846 0.181
0.833 0.099
0.83 0.093
0.827 0.088
0.824 0.082
0.821 0.076
0.818 0.071
0.816 0.065
0.816 0.069
0.816 0.073
0.816 0.077
0.816 0.081
0.816 0.085
0.817 0.089
0.843 0.099
0.87 0.109
0.897 0.118
0.924 0.128
0.95 0.137
0.977 0.147
0.975 0.158
0.973 0.169
0.971 0.181
0.969 0.192
0.967 0.203
0.964 0.214
0.95 0.187
0.935 0.16
0.921 0.133
0.906 0.105
0.892 0.078
0.878 0.051
0.885 0.182
0.893 0.313
0.901 0.443
0.909 0.574
0.917 0.705
0.924 0.836
0.84 0.709
0.756 0.582
0.673 0.455
0.589 0.328
0.505 0.202
0.421 0.075
0.459 0.128
0.498 0.18
0.537 0.233
0.576 0.286
0.614 0.339
0.653 0.392
0.699 0.363
0.745 0.334
0.791 0.306
0.838 0.277
0.884 0.248
0.93 0.219
0.879 0.203
0.828 0.186
0.777 0.17
0.726 0.153
0.675 0.136
0.624 0.12
0.673 0.172
0.722 0.224
0.771 0.276
0.82 0.328
0.869 0.38
0.918 0.432
0.918 0.389
0.917 0.347
0.917 0.304
0.916 0.262
0.916 0.219
0.916 0.177
0.918 0.198
0.92 0.218
0.922 0.239
0.924 0.26
0.927 0.281
0.929 0.301
0.928 0.256
0.927 0.21
0.926 0.164
0.925 0.118
0.924 0.072
0.923 0.027
0.916 0.039
0.909 0.051
0.903 0.063
0.896 0.075
0.889 0.087
0.882 0.099
0.887 0.109
0.892 0.119
0.897 0.128
0.902 0.138
0.907 0.148
0.911 0.158
0.912 0.136
0.913 0.114
0.913 0.092
0.914 0.071
0.914 0.049
0.915 0.027
0.922 0.135
0.928 0.242
0.935 0.35
0.942 0.458
0.949 0.565
0.956 0.673
0.936 0.578
0.917 0.483
0.898 0.388
0.879 0.293
0.859 0.197
0.84 0.102
0.831 0.227
0.821 0.352
0.812 0.477
0.802 0.601
0.793 0.726
0.783 0.851
0.803 0.733
0.823 0.616
0.843 0.498
0.863 0.381
0.883 0.264
0.902 0.146
0.908 0.15
0.914 0.153
0.92 0.156
0.926 0.16
0.932 0.163
0.939 0.166
0.91 0.159
0.881 0.151
0.852 0.144
0.823 0.136
0.794 0.128
0.765 0.121
0.789 0.12
0.812 0.12
0.836 0.12
0.86 0.119
0.884 0.119
0.908 0.119
0.857 0.209
0.806 0.3
0.755 0.39
0.704 0.481
0.654 0.572
0.603 0.662
0.613 0.634
0.623 0.605
0.633 0.577
0.644 0.548
0.654 0.52
0.664 0.491
0.712 0.517
0.76 0.543
0.808 0.568
0.856 0.594
0.903 0.619
0.951 0.645
0.926 0.545
0.901 0.445
0.876 0.344
0.851 0.244
0.826 0.144
0.801 0.044
0.748 0.056
0.696 0.068
0.644 0.08
0.591 0.092
0.539 0.104
0.487 0.115
0.556 0.126
0.626 0.136
0.696 0.146
0.766 0.157
0.836 0.167
0.905 0.178
0.907 0.174
0.909 0.17
0.911 0.166
0.912 0.163
0.914 0.159
0.916 0.155
0.927 0.141
0.939 0.127
0.95 0.112
0.962 0.098
0.973 0.084
0.985 0.069
0.964 0.062
0.943 0.055
0.921 0.048
0.9 0.041
0.879 0.033
0.858 0.026
0.873 0.17
0.888 0.315
0.903 0.459
0.918 0.603
0.933 0.748
0.948 0.892
0.943 0.746
0.937 0.601
0.931 0.455
0.926 0.309
0.92 0.163
0.914 0.018
0.915 0.028
0.916 0.037
0.917 0.047
0.917 0.057
0.918 0.067
0.919 0.076
0.911 0.087
0.903 0.097
0.895 0.107
0.887 0.117
0.879 0.127
0.871 0.137
0.85 0.149
0.828 0.16
0.807 0.171
0.785 0.182
0.763 0.193
0.742 0.205
0.754 0.224
0.766 0.243
0.779 0.262
0.791 0.281
0.803 0.3
0.815 0.319
0.841 0.3
0.867 0.28
0.892 0.261
0.918 0.242
0.944 0.223
0.97 0.203
0.96 0.229
0.951 0.255
0.942 0.281
0.933 0.307
0.924 0.333
0.915 0.359
0.916 0.304
0.916 0.25
0.917 0.196
0.918 0.142
0.919 0.088
0.92 0.034
0.917 0.08
0.915 0.127
0.912 0.173
0.91 0.219
0.907 0.265
0.905 0.312
0.83 0.278
0.756 0.243
0.682 0.209
0.608 0.175
0.534 0.141
0.46 0.107
0.492 0.179
0.523 0.251
0.554 0.322
0.586 0.394
0.617 0.466
0.649 0.537
0.7 0.561
0.752 0.584
0.803 0.607
0.855 0.63
0.906 0.653
0.957 0.677
0.911 0.574
0.864 0.472
0.818 0.369
0.771 0.266
0.724 0.164
0.678 0.061
0.713 0.157
0.749 0.252
0.785 0.347
0.821 0.442
0.856 0.538
0.892 0.633
0.896 0.546
0.901 0.458
0.905 0.371
0.909 0.284
0.913 0.196
0.917 0.109
0.916 0.107
0.915 0.106
0.914 0.104
0.912 0.103
0.911 0.101
0.91 0.099
0.897 0.108
0.884 0.117
0.871 0.126
0.859 0.135
0.846 0.144
0.833 0.153
0.796 0.163
0.759 0.173
0.722 0.183
0.685 0.193
0.648 0.203
0.611 0.213
0.669 0.243
0.728 0.273
0.786 0.302
0.844 0.332
0.902 0.362
0.961 0.392
0.958 0.33
0.956 0.268
0.953 0.206
0.951 0.144
0.949 0.082
0.946 0.02
0.948 0.142
0.951 0.263
0.953 0.384
0.955 0.506
0.957 0.627
0.959 0.749
0.959 0.636
0.96 0.523
0.96 0.409
0.96 0.296
0.961 0.183
0.961 0.07
0.943 0.206
0.925 0.342
0.907 0.478
0.889 0.614
0.871 0.75
0.853 0.886
0.862 0.763
0.871 0.64
0.88 0.517
0.889 0.394
0.898 0.271
0.907 0.148
0.916 0.158
0.924 0.168
0.933 0.179
0.941 0.189
0.95 0.199
0.958 0.21
0.958 0.209
0.958 0.208
0.958 0.208
0.958 0.207
0.958 0.207
0.958 0.206
0.921 0.196
0.883 0.186
0.845 0.176
0.807 0.166
0.77 0.156
0.732 0.146
0.768 0.25
0.804 0.353
0.84 0.457
0.875 0.56
0.911 0.664
0.947 0.767
0.951 0.656
0.955 0.545
0.959 0.434
0.963 0.322
0.967 0.211
0.971 0.1
0.964 0.139
0.957 0.178
0.949 0.217
0.942 0.256
0.935 0.295
0.927 0.334
0.918 0.295
0.909 0.256
0.9 0.217
0.891 0.177
0.882 0.138
0.873 0.099
0.836 0.09
0.798 0.081
0.761 0.073
0.724 0.064
0.686 0.055
0.649 0.046
0.694 0.075
0.738 0.104
0.783 0.133
0.828 0.162
0.873 0.192
0.918 0.221
0.919 0.207
0.921 0.194
0.922 0.181
0.924 0.168
0.925 0.155
0.926 0.142
0.935 0.156
0.944 0.171
0.953 0.185
0.962 0.2
0.971 0.214
0.98 0.228
0.955 0.194
0.93 0.16
0.905 0.126
0.88 0.092
0.855 0.058
0.83 0.024
0.85 0.136
0.87 0.248
0.889 0.36
0.909 0.472
0.928 0.585
0.948 0.697
0.941 0.585
0.935 0.472
0.929 0.36
0.922 0.248
0.916 0.136
0.909 0.024
0.91 0.029
0.912 0.034
0.913 0.039
0.914 0.044
0.916 0.049
0.917 0.054
0.925 0.103
0.934 0.153
0.943 0.202
0.951 0.252
0.96 0.301
0.968 0.35
0.943 0.32
0.918 0.289
0.893 0.258
0.868 0.227
0.842 0.196
0.817 0.165
0.815 0.237
0.812 0.31
0.81 0.382
0.807 0.454
0.805 0.526
0.803 0.599
0.83 0.527
0.857 0.455
0.884 0.383
0.911 0.311
0.938 0.239
0.965 0.167
0.955 0.195
0.945 0.223
0.935 0.25
0.925 0.278
0.915 0.306
0.905 0.334
0.903 0.289
0.9 0.244
0.897 0.199
0.894 0.154
0.891 0.109
0.889 0.063
0.894 0.075
0.899 0.086
0.905 0.097
0.91 0.108
0.916 0.119
0.921 0.13
0.835 0.188
0.749 0.247
0.663 0.305
0.576 0.363
0.49 0.421
0.404 0.479
0.452 0.501
0.501 0.522
0.549 0.544
0.598 0.566
0.646 0.587
0.694 0.609
0.739 0.627
0.784 0.646
0.828 0.664
0.873 0.683
0.918 0.701
0.962 0.72
0.925 0.607
0.888 0.494
0.851 0.381
0.814 0.267
0.777 0.154
0.74 0.041
0.731 0.201
0.722 0.361
0.714 0.521
0.705 0.68
0.696 0.84
0.687 1.0
0.724 0.853
0.761 0.707
0.798 0.56
0.835 0.414
0.872 0.267
0.91 0.121
0.911 0.12
0.913 0.12
0.914 0.119
0.916 0.119
0.918 0.118
0.919 0.118
0.921 0.111
0.922 0.104
0.923 0.096
0.924 0.089
0.926 0.082
0.927 0.075
0.92 0.078
0.913 0.081
0.906 0.084
0.9 0.088
0.893 0.091
0.886 0.094
0.897 0.203
0.907 0.313
0.918 0.422
0.928 0.532
0.939 0.641
0.95 0.751
0.944 0.628
0.938 0.506
0.932 0.383
0.927 0.261
0.921 0.139
0.915 0.016
0.918 0.108
0.92 0.2
0.922 0.292
0.925 0.384
0.927 0.476
0.93 0.568
0.911 0.485
0.892 0.401
0.873 0.318
0.854 0.234
0.835 0.151
0.816 0.067
0.819 0.072
0.822 0.078
0.825 0.083
0.829 0.089
0.832 0.094
0.835 0.1
0.841 0.106
0.847 0.112
0.853 0.118
0.859 0.124
0.865 0.129
0.871 0.135
0.886 0.138
0.901 0.141
0.916 0.143
0.931 0.146
0.946 0.148
0.961 0.151
0.959 0.161
0.958 0.172
0.956 0.182
0.955 0.193
0.954 0.203
0.952 0.214
0.947 0.186
0.942 0.159
0.937 0.132
0.932 0.104
0.927 0.077
0.922 0.05
0.919 0.197
0.915 0.345
0.912 0.492
0.908 0.64
0.905 0.788
0.902 0.935
0.823 0.791
0.744 0.647
0.665 0.503
0.586 0.359
0.507 0.215
0.429 0.071
0.468 0.123
0.507 0.175
0.547 0.228
0.586 0.28
0.625 0.333
0.665 0.385
0.709 0.355
0.753 0.325
0.797 0.294
0.841 0.264
0.885 0.234
0.929 0.204
0.876 0.186
0.824 0.168
0.771 0.15
0.719 0.132
0.666 0.115
0.614 0.097
0.664 0.156
0.713 0.215
0.763 0.274
0.813 0.333
0.863 0.392
0.913 0.451
0.913 0.407
0.913 0.363
0.914 0.319
0.914 0.275
0.915 0.231
0.915 0.187
0.929 0.215
0.943 0.242
0.957 0.27
0.972 0.298
0.986 0.326
1.0 0.354
0.975 0.303
0.95 0.253
0.925 0.202
0.9 0.152
0.875 0.101
0.85 0.051
0.859 0.058
0.867 0.065
0.876 0.073
0.884 0.08
0.893 0.088
0.902 0.095
0.903 0.112
0.905 0.129
0.907 0.146
0.909 0.163
0.911 0.18
0.913 0.196
0.914 0.17
0.914 0.143
0.914 0.116
0.915 0.09
0.915 0.063
0.915 0.036
0.925 0.139
0.934 0.242
0.943 0.345
0.953 0.448
0.962 0.551
0.972 0.654
0.95 0.562
0.928 0.47
0.906 0.378
0.884 0.286
0.863 0.195
0.841 0.103
0.836 0.185
0.83 0.267
0.825 0.348
0.82 0.43
0.815 0.512
0.81 0.594
0.828 0.525
0.846 0.456
0.864 0.388
0.882 0.319
0.899 0.25
0.917 0.182
0.92 0.19
0.923 0.199
0.926 0.207
0.929 0.216
0.932 0.224
0.935 0.233
0.936 0.217
0.937 0.201
0.937 0.186
0.938 0.17
0.939 0.154
0.939 0.139
0.933 0.137
0.927 0.135
0.921 0.132
0.915 0.13
0.909 0.128
0.903 0.126
0.849 0.215
0.795 0.304
0.741 0.392
0.687 0.481
0.633 0.57
0.579 0.659
0.597 0.634
0.614 0.609
0.632 0.585
0.649 0.56
0.667 0.536
0.684 0.511
0.728 0.548
0.771 0.585
0.815 0.622
0.858 0.659
0.902 0.696
0.945 0.733
0.921 0.62
0.897 0.508
0.873 0.395
0.849 0.282
0.825 0.17
0.801 0.057
0.75 0.069
0.699 0.08
0.648 0.091
0.597 0.103
0.546 0.114
0.495 0.125
0.563 0.121
0.631 0.118
0.699 0.114
0.767 0.11
0.834 0.106
0.902 0.102
0.905 0.107
0.908 0.111
0.911 0.115
0.914 0.12
0.917 0.124
0.92 0.128
0.926 0.137
0.932 0.146
0.938 0.155
0.944 0.163
0.95 0.172
0.956 0.181
0.939 0.162
0.923 0.143
0.907 0.124
0.891 0.105
0.874 0.085
0.858 0.066
0.857 0.193
0.856 0.32
0.856 0.447
0.855 0.574
0.854 0.701
0.853 0.828
0.87 0.722
0.887 0.616
0.904 0.511
0.921 0.405
0.938 0.299
0.955 0.193
0.889 0.182
0.824 0.17
0.759 0.159
0.693 0.147
0.628 0.136
0.563 0.124
0.592 0.14
0.621 0.156
0.65 0.172
0.679 0.188
0.708 0.203
0.736 0.219
0.723 0.194
0.71 0.17
0.697 0.145
0.684 0.12
0.671 0.096
0.657 0.071
0.709 0.187
0.761 0.304
0.812 0.421
0.864 0.537
0.916 0.654
0.967 0.771
0.949 0.677
0.93 0.584
0.911 0.49
0.893 0.397
0.874 0.303
0.855 0.209
0.875 0.232
0.894 0.254
0.914 0.276
0.934 0.298
0.953 0.32
0.973 0.342
0.969 0.305
0.965 0.267
0.961 0.229
0.957 0.192
0.953 0.154
0.949 0.116
0.947 0.222
0.945 0.328
0.943 0.435
0.94 0.541
0.938 0.647
0.936 0.753
0.91 0.648
0.885 0.543
0.859 0.438
0.834 0.333
0.809 0.228
0.783 0.123
0.765 0.112
0.748 0.101
0.73 0.09
0.712 0.078
0.694 0.067
0.676 0.056
0.715 0.2
0.754 0.344
0.793 0.488
0.832 0.632
0.872 0.776
0.911 0.92
0.92 0.785
0.929 0.65
0.939 0.515
0.948 0.381
0.957 0.246
0.967 0.111
0.938 0.241
0.91 0.371
0.882 0.5
0.854 0.63
0.826 0.76
0.798 0.889
0.666 0.741
0.533 0.593
0.401 0.445
0.269 0.296
0.137 0.148
0.005 0.0
0.13 0.024
0.255 0.048
0.38 0.072
0.505 0.097
0.63 0.121
0.756 0.145
0.756 0.214
0.756 0.284
0.756 0.354
0.756 0.423
0.756 0.493
0.756 0.562
0.781 0.515
0.806 0.467
0.831 0.419
0.856 0.371
0.881 0.323
0.906 0.275
0.908 0.3
0.91 0.325
0.911 0.35
0.913 0.374
0.915 0.399
0.916 0.424
0.917 0.38
0.917 0.336
0.917 0.292
0.918 0.249
0.918 0.205
0.919 0.161
0.926 0.248
0.932 0.335
0.939 0.422
0.946 0.508
0.953 0.595
0.96 0.682
0.925 0.572
0.889 0.462
0.854 0.351
0.818 0.241
0.783 0.131
0.747 0.02
0.758 0.127
0.768 0.234
0.779 0.34
0.789 0.447
0.799 0.553
0.81 0.66
0.806 0.576
0.802 0.492
0.798 0.408
0.794 0.324
0.79 0.24
0.786 0.155
0.813 0.13
0.841 0.104
0.868 0.078
0.896 0.052
0.923 0.026
0.95 0.0
0.948 0.005
0.946 0.011
0.944 0.016
0.942 0.022
0.94 0.027
0.938 0.033
0.936 0.037
0.934 0.042
0.932 0.046
0.929 0.051
0.927 0.056
0.925 0.06
0.883 0.171
0.841 0.282
0.799 0.392
0.757 0.503
0.715 0.614
0.673 0.725
0.632 0.604
0.59 0.483
0.549 0.362
0.508 0.242
0.466 0.121
0.425 0.0
0.499 0.076
0.573 0.151
0.647 0.227
0.721 0.302
0.795 0.378
0.869 0.453
0.868 0.382
0.868 0.311
0.868 0.241
0.868 0.17
0.868 0.099
0.868 0.028
0.824 0.066
0.78 0.105
0.736 0.143
0.692 0.182
0.648 0.22
0.604 0.259
0.656 0.245
0.709 0.231
0.761 0.216
0.813 0.202
0.865 0.188
0.918 0.174
0.913 0.187
0.908 0.2
0.904 0.214
0.899 0.227
0.894 0.241
0.889 0.254
0.907 0.222
0.924 0.19
0.941 0.158
0.958 0.126
0.976 0.094
0.993 0.061
0.964 0.066
0.935 0.071
0.907 0.076
0.878 0.08
0.849 0.085
0.82 0.09
0.834 0.175
0.849 0.261
0.863 0.346
0.877 0.431
0.891 0.516
0.905 0.602
0.905 0.518
0.906 0.434
0.906 0.351
0.907 0.267
0.907 0.183
0.908 0.1
0.909 0.097
0.91 0.094
0.911 0.091
0.912 0.088
0.913 0.085
0.914 0.082
0.923 0.115
0.931 0.149
0.94 0.183
0.948 0.216
0.957 0.25
0.965 0.283
0.935 0.256
0.905 0.229
0.875 0.202
0.845 0.175
0.815 0.148
0.785 0.121
0.785 0.189
0.785 0.258
0.785 0.326
0.786 0.395
0.786 0.463
0.786 0.532
0.818 0.443
0.85 0.354
0.882 0.266
0.914 0.177
0.946 0.089
0.978 0.0
0.974 0.033
0.97 0.066
0.966 0.099
0.963 0.132
0.959 0.165
0.955 0.199
0.919 0.166
0.882 0.133
0.846 0.1
0.81 0.067
0.773 0.035
0.737 0.002
0.766 0.02
0.795 0.038
0.824 0.056
0.853 0.074
0.882 0.092
0.911 0.111
0.816 0.137
0.721 0.164
0.626 0.191
0.531 0.218
0.436 0.244
0.341 0.271
0.385 0.273
0.429 0.275
0.473 0.277
0.517 0.278
0.562 0.28
0.606 0.282
0.665 0.353
0.725 0.423
0.785 0.494
0.844 0.564
0.904 0.635
0.964 0.705
0.926 0.588
0.889 0.47
0.851 0.353
0.814 0.235
0.777 0.118
0.739 0.0
0.746 0.112
0.752 0.224
0.759 0.336
0.765 0.449
0.772 0.561
0.779 0.673
0.802 0.568
0.825 0.462
0.848 0.357
0.871 0.252
0.894 0.146
0.916 0.041
0.917 0.073
0.918 0.105
0.919 0.137
0.92 0.169
0.921 0.201
0.922 0.233
0.921 0.22
0.92 0.206
0.92 0.193
0.919 0.179
0.918 0.166
0.917 0.153
0.914 0.145
0.91 0.137
0.907 0.129
0.904 0.121
0.9 0.113
0.897 0.105
0.904 0.185
0.911 0.265
0.918 0.345
0.925 0.425
0.932 0.505
0.939 0.584
0.936 0.504
0.933 0.423
0.929 0.342
0.926 0.261
0.923 0.18
0.92 0.099
0.921 0.158
0.923 0.216
0.924 0.275
0.926 0.333
0.927 0.392
0.928 0.45
0.908 0.375
0.888 0.3
0.868 0.225
0.848 0.15
0.828 0.075
0.808 0.0
0.812 0.032
0.816 0.065
0.82 0.097
0.824 0.13
0.828 0.162
0.832 0.194
0.841 0.183
0.85 0.172
0.86 0.161
0.869 0.15
0.878 0.139
0.887 0.128
0.898 0.112
0.91 0.096
0.921 0.08
0.933 0.064
0.944 0.048
0.956 0.032
0.955 0.053
0.955 0.073
0.954 0.093
0.954 0.113
0.953 0.133
0.953 0.153
0.947 0.134
0.941 0.115
0.935 0.097
0.93 0.078
0.924 0.059
0.918 0.04
0.918 0.162
0.918 0.285
0.918 0.408
0.918 0.531
0.918 0.654
0.918 0.777
0.842 0.648
0.765 0.518
0.688 0.389
0.612 0.259
0.535 0.13
0.459 0.0
0.475 0.0
0.491 0.0
0.507 0.0
0.523 0.0
0.539 0.0
0.555 0.0
0.617 0.011
0.679 0.021
0.74 0.032
0.802 0.043
0.864 0.054
0.926 0.064
0.873 0.091
0.82 0.117
0.767 0.143
0.714 0.169
0.661 0.195
0.609 0.222
0.661 0.252
0.712 0.283
0.764 0.313
0.816 0.344
0.868 0.374
0.92 0.405
0.919 0.382
0.917 0.359
0.915 0.336
0.913 0.313
0.912 0.29
0.91 0.267
0.924 0.256
0.938 0.246
0.952 0.236
0.966 0.225
0.98 0.215
0.995 0.205
0.966 0.185
0.937 0.166
0.908 0.147
0.879 0.127
0.85 0.108
0.821 0.089
0.789 0.074
0.758 0.059
0.727 0.044
0.695 0.03
0.664 0.015
0.633 0.0
0.686 0.037
0.74 0.075
0.794 0.112
0.848 0.15
0.901 0.187
0.955 0.225
0.942 0.216
0.929 0.207
0.916 0.197
0.903 0.188
0.89 0.179
0.877 0.17
0.894 0.249
0.91 0.327
0.927 0.406
0.943 0.484
0.96 0.563
0.976 0.641
0.967 0.54
0.958 0.439
0.949 0.337
0.94 0.236
0.931 0.135
0.923 0.033
0.925 0.166
0.928 0.299
0.931 0.433
0.933 0.566
0.936 0.699
0.939 0.832
0.899 0.696
0.86 0.559
0.82 0.423
0.781 0.287
0.741 0.15
0.701 0.014
0.744 0.031
0.786 0.048
0.828 0.064
0.871 0.081
0.913 0.098
0.955 0.115
0.956 0.123
0.956 0.131
0.956 0.14
0.957 0.148
0.957 0.156
0.957 0.164
0.912 0.144
0.867 0.124
0.822 0.104
0.777 0.084
0.732 0.064
0.687 0.044
0.72 0.092
0.752 0.141
0.784 0.189
0.816 0.237
0.849 0.286
0.881 0.334
0.894 0.327
0.908 0.32
0.921 0.313
0.935 0.305
0.949 0.298
0.962 0.291
0.958 0.343
0.955 0.394
0.951 0.446
0.947 0.497
0.943 0.549
0.94 0.6
0.923 0.534
0.907 0.469
0.891 0.403
0.874 0.338
0.858 0.272
0.841 0.207
0.837 0.215
0.832 0.223
0.827 0.232
0.823 0.24
0.818 0.249
0.813 0.257
0.829 0.231
0.845 0.205
0.86 0.179
0.876 0.154
0.892 0.128
0.907 0.102
0.905 0.11
0.902 0.118
0.899 0.127
0.896 0.135
0.894 0.144
0.891 0.152
0.896 0.157
0.902 0.161
0.907 0.166
0.913 0.171
0.918 0.176
0.923 0.181
0.902 0.161
0.88 0.141
0.858 0.121
0.837 0.101
0.815 0.08
0.794 0.06
0.808 0.157
0.823 0.253
0.838 0.35
0.853 0.446
0.867 0.543
0.882 0.639
0.872 0.543
0.861 0.446
0.851 0.35
0.841 0.253
0.83 0.157
0.82 0.06
0.818 0.061
0.816 0.062
0.815 0.063
0.813 0.064
0.811 0.065
0.809 0.065
0.8 0.055
0.791 0.044
0.782 0.034
0.773 0.023
0.764 0.012
0.755 0.002
0.731 0.008
0.707 0.014
0.684 0.021
0.66 0.027
0.637 0.033
0.613 0.04
0.621 0.053
0.628 0.066
0.635 0.08
0.642 0.093
0.649 0.106
0.656 0.12
0.68 0.1
0.705 0.08
0.729 0.06
0.753 0.04
0.777 0.02
0.801 0.0
0.799 0.01
0.797 0.019
0.794 0.029
0.792 0.039
0.79 0.049
0.788 0.058
0.773 0.049
0.759 0.039
0.744 0.03
0.73 0.02
0.715 0.011
0.7 0.001
0.701 0.025
0.702 0.049
0.703 0.072
0.704 0.096
0.705 0.119
0.706 0.143
0.622 0.119
0.538 0.095
0.454 0.071
0.37 0.048
0.286 0.024
0.202 0.0
0.225 0.0
0.248 0.0
0.271 0.0
0.294 0.0
0.317 0.0
0.34 0.0
0.401 0.047
0.461 0.095
0.522 0.142
0.583 0.189
0.643 0.237
0.704 0.284
0.655 0.24
0.607 0.196
0.558 0.152
0.509 0.108
0.46 0.064
0.411 0.021
0.448 0.045
0.485 0.069
0.521 0.093
0.558 0.117
0.595 0.141
0.631 0.165
0.629 0.137
0.626 0.11
0.624 0.082
0.621 0.055
0.618 0.027
0.616 0.0
0.614 0.002
0.612 0.004
0.61 0.006
0.607 0.008
0.605 0.01
0.603 0.012
0.594 0.011
0.585 0.01
0.575 0.009
0.566 0.008
0.557 0.007
0.548 0.006
0.546 0.005
0.545 0.004
0.544 0.003
0.542 0.002
0.541 0.001
0.539 0.0
0.544 0.002
0.548 0.004
0.552 0.006
0.556 0.008
0.561 0.009
0.565 0.011
0.56 0.011
0.555 0.01
0.55 0.009
0.546 0.009
0.541 0.008
0.536 0.008
0.538 0.038
0.54 0.069
0.541 0.1
0.543 0.13
0.545 0.161
0.547 0.192
0.513 0.16
0.479 0.128
0.445 0.096
0.412 0.064
0.378 0.032
0.344 0.0
0.351 0.0
0.359 0.0
0.366 0.0
0.373 0.0
0.38 0.0
0.388 0.0
0.397 0.0
0.407 0.0
0.417 0.0
0.427 0.0
0.437 0.0
0.447 0.0
0.455 0.0
0.463 0.0
0.471 0.0
0.479 0.0
0.487 0.0
0.494 0.0
0.492 0.0
0.49 0.0
0.487 0.0
0.485 0.0
0.482 0.0
0.48 0.0
0.465 0.0
0.45 0.0
0.435 0.0
0.42 0.0
0.404 0.0
0.389 0.0
0.358 0.0
0.328 0.0
0.297 0.0
0.266 0.0
0.235 0.0
0.204 0.0
0.17 0.095
0.136 0.19
0.102 0.284
0.068 0.379
0.034 0.474
0.0 0.569
0.062 0.474
0.123 0.379
0.185 0.285
0.246 0.19
0.308 0.095
0.369 0.0
0.359 0.0
0.35 0.0
0.34 0.0
0.331 0.0
0.321 0.0
0.312 0.0
0.268 0.0
0.223 0.0
0.179 0.0
0.135 0.0
0.091 0.0
0.047 0.0
0.095 0.0
0.142 0.0
0.19 0.0
0.237 0.0
0.285 0.0
0.332 0.0
0.277 0.095
0.221 0.19
0.166 0.284
0.111 0.379
0.055 0.474
0.0 0.5688452503475087
